[
    {
        "original_question": "What is the Advocates’ Complaints Commission?",
        "rephrased_questions": [
            "What is the Advocates’ Complaints Commission?",
            "What is the advocate's complaints committee?",
            "What is the Law Appeals Board?",
            "What is the Advocate Complaints Commission?",
            "What is the Lawyer's Complaints Commission?",
            "What is the Lawyers Complaints Commission?",
            "What is a Lawyers Complaints Commission?",
            "What is an Advocate Commission?",
            "What is the Advocates' Complaint Commission?",
            "What is a Councilor?",
            "What does the Complainant Commission mean?"
        ],
        "answer": "The Advocates’ Complaints Commission is a department within the Office of the Attorney General established under section 53 of the Advocates’ Act (Chapter 16, Laws of Kenya). It was established in 1989 and it became operational in November 1990. It is mandated to inquire into complaints of professional misconduct against any advocate, firm of advocates, or any member or employee thereof."
    },
    {
        "original_question": "Who can complain at the Commission?",
        "rephrased_questions": [
            "Who can complain at the Commission?",
            "Who can submit a complaint to the Commission?",
            "Who can complain to the commission?",
            "Who can complain to the Commission?",
            "Who can complain at the Commission?",
            "Who can file a complaint with the Commission?"
        ],
        "answer": "Any person aggrieved by the conduct of any advocate, firm of advocates, or any member or employee thereof.\nAny person authorized by law, for instance, an MP or an advocate, on behalf of the person aggrieved by the conduct of any advocate, firm of advocates, or any member or employee thereof.\nA close relative or friend authorized by the person aggrieved by the conduct of any advocate, firm of advocates, or any member or employee thereof in the event they are incapable to act on their own."
    },
    {
        "original_question": "Whom is a complaint lodged against?",
        "rephrased_questions": [
            "Whom is a complaint lodged against?",
            "Who filed a complaint?",
            "Who is the complaint against?",
            "Who has been lodged a complaint against?",
            "Who Is The Complaint?",
            "To whom is the complaint lodged?",
            "Against whom is a complaint made?",
            "Who has filed a complaint?",
            "To whom is a complaint filed?",
            "Who is a complaint to?"
        ],
        "answer": "Any advocate\nFirm of advocates\nAny member or employee of a firm of advocates"
    },
    {
        "original_question": "How can the public complain to the Commission?",
        "rephrased_questions": [
            "How can the public complain to the Commission?",
            "How can the public complain to the Commission?",
            "How can the public appeal to the Commission?",
            "How will the public complain to the Commission?",
            "How to appeal to the People's Commissariat?",
            "How does the public complain to the committee?"
        ],
        "answer": "You can come to our offices based at Cooperative Bank House, 20th floor along Harambee Avenue, in person and present your complaint by filling our help form. (Please note that the Commission’s help forms are also available at the administration offices in the Counties). You may also write to the Commission using our postal address; P.O. Box 48048 – 00100 Nairobi or email the Commission at the address acc@kenya.go.ke."
    },
    {
        "original_question": "What types of complaints does the Commission investigate?",
        "rephrased_questions": [
            "What types of complaints does the Commission investigate?",
            "What types of complaints the Commission investigate?",
            "What kinds of complaints are the Commission investigating?",
            "What types of complaints does the Commission investigate?",
            "What kind of complaints does the Commission investigate?",
            "What complaints will the committee investigate?",
            "What complaints does the Commission investigate?",
            "What types of complaints are the Commission dealing with?",
            "What types of complaints is the Commission investigating?"
        ],
        "answer": "(i) Failure to account for client’s monies\n(ii) Withholding money belonging to client\n(iii) Issuing cheques which are subsequently dishonoured\n(iv) Failure to honour professional undertaking\n(v) Delay to prosecute or finalize client’s matter\n(vi) Failure to reply to correspondence or communication from professional   colleagues or the Commission\n(vii) Failure to comply with client’s instructions or acting contrary to clients instructions\n(viii) Failure to release to the clients his/her documents where instructions have been withdrawn from the advocate\n(ix) Overcharging client\n(x) Failure to attend court\n(xi) Acting in conflict of interest\n(xii) Demanding legal fees from a person who is not a client\n(xiii) Any disgraceful/dishonourable conduct incompatible with the status of an advocate"
    },
    {
        "original_question": "What kind of complaints does the Commission not investigate?",
        "rephrased_questions": [
            "What kind of complaints does the Commission not investigate?",
            "What complaints does the commission not investigate?",
            "What type of complaint is the Commission not investigating?",
            "What complaints does the Commission not investigate?",
            "What kind of complaints does the Commission not investigate?",
            "What kind of complaints does the Commission not examine?",
            "What complaints are the Commission not dealing with?"
        ],
        "answer": "Cases relating purely to negligence of advocates in the discharge of their duties\nComplaints against Judicial Officers and State Counsel"
    },
    {
        "original_question": "What is required of the complainant when reporting a complaint?",
        "rephrased_questions": [
            "What is required of the complainant when reporting a complaint?",
            "What is required of the complainant when reporting a complaint?",
            "What is required of the complainant when filing a complaint?",
            "What is required of the applicant when filing a complaint?",
            "What is required of a complaint when reporting a complaint?",
            "What is required of a complainant when reporting a complaint?",
            "What does the complainant need when reporting the complaint?",
            "What looga required when the complainant reported the complaint?",
            "What does the complainant need when filing a complaint?"
        ],
        "answer": "The complainant is required to accompany his/her complaint with a copy of his/her national identification card or passport. Provide copies of all relevant documents or letters including receipts, particulars of parties’ involved, insurance claims, policy numbers and court cases."
    },
    {
        "original_question": "What happens to complaints accepted by the Commission?",
        "rephrased_questions": [
            "What happens to complaints accepted by the Commission?",
            "What are the complaints accepted by the Commission?",
            "What happens to complaints received by the Commission?",
            "What happens to complaints accepted by the Commission?",
            "What about the complaints made by the Commission?",
            "What happens to complaints approved by the Commission?"
        ],
        "answer": "The Commission embarks on the investigation process and where a complaint lacks substance, the same is rejected and complainant notified accordingly. On the other hand, if there is substance in a complaint and the same constitutes a disciplinary offence, it is referred to the Disciplinary Tribunal for further appropriate action.\nFurther the Commission has a mandate under section 53 (5) of the Advocates Act to endeavor to promote reconciliation, encourage and facilitate amicable settlement between the parties to the complaint where appropriate through the In-House Dispute Resolution mechanism."
    },
    {
        "original_question": "What happens to complaints not accepted by the Commission?",
        "rephrased_questions": [
            "What happens to complaints not accepted by the Commission?",
            "What happened to complaints that were not received by the Commission?",
            "What happens to complaints not accepted by the Commission?",
            "What happens to complaints that are not accepted by the Commission?",
            "What happens to complaints that the Commission does not approve of?",
            "What happens to complaints that have not been received by the Commission?",
            "What happens to the complaints not accepted by the Commission?",
            "What happens to a complaint the commission does not accept?"
        ],
        "answer": "The Commission usually refers such cases to institutions that have a proven track record to handle complaints of any given nature. No one is sent away without invaluable advice as to how to handle the problem or given an idea of who might be of better help."
    },
    {
        "original_question": "Does the Commission charge any fees?",
        "rephrased_questions": [
            "Does the Commission charge any fees?",
            "Does the Commission charge a fee?",
            "Does the commission charge any fees?",
            "Does the commission pay any fees?",
            "Does the Commission charge any fees?",
            "Does the Commission impose charges?",
            "Does the committee charge any fees?"
        ],
        "answer": "The Commission does not charge for its services to the public."
    },
    {
        "original_question": "Enquiry relating to a specific file/complaint",
        "rephrased_questions": [
            "Enquiry relating to a specific file/complaint",
            "Inquiry file / specific complaint",
            "Consultation related to a specific file / complaint",
            "An investigation related to a particular file / complaint",
            "Requests regarding a specific file / complaint",
            "Query related to a specific file / complaint",
            "Query pertaining to a specific file / complaint",
            "Inquiry about a specific file / complaint",
            "Investigation relating to a particular case / complaint",
            "Inquiry into a specific file / complaint",
            "Research refers to a specific file / complaint"
        ],
        "answer": "The caller will be required to provide the following information;\n\nFile reference number.\nHis/her full names as indicated in the complaint.\nHis/her national identity card/passport number as indicated in the complaint.\nThe name of the advocate or firm of advocates complained against.\nDate when he/she lodged the complaint at the Commission.\nThe name of the State Counsel handling the complaint. (Available in any correspondence written to the client by the Commission)."
    },
    {
        "original_question": "What is Professional Misconduct?",
        "rephrased_questions": [
            "What is Professional Misconduct?",
            "What is professional abuse?",
            "What is Professional Misconduct?",
            "What is Professional Violence?",
            "What is Professional misconduct?",
            "What is a Professional Abuser?",
            "What is professional behavior?",
            "What is misconduct?",
            "What is professional cheating?"
        ],
        "answer": "The conduct of an advocate in the carrying out of his or her professional duties."
    },
    {
        "original_question": "What should I expect from my advocate?",
        "rephrased_questions": [
            "What should I expect from my advocate?",
            "What should I expect from my agent",
            "What can I produce from my consultant?",
            "What should I expect from my lawyer?",
            "What can I expect from my sponsor?",
            "What should the lawyer expect?",
            "What do I expect from my lawyer?",
            "What should I get from my supporters?",
            "What should I expect from my supporter?"
        ],
        "answer": "Your advocate should;\n\nAct ethically and abide by the law.\nNot reveal anything you tell him or her in confidence exempt in a life threatening situation.\nAllow you to make a final decision on how your case will be handled.\nExercise independent judgment on your behalf.\nKeep you updated on your matter."
    },
    {
        "original_question": "How can I avoid problems with my advocate?",
        "rephrased_questions": [
            "How can I avoid problems with my advocate?",
            "How can I avoid problems with my advocate?",
            "How can I avoid problems with my lawyer?",
            "How can I avoid problems with my agent?"
        ],
        "answer": "To help avoid some problems or misunderstandings, as a client, you should;\n\nMake sure the advocate you are dealing with is licensed. Avoid falling victim to someone imposing as an advocate.\nUnderstand exactly what your advocate will be doing for you and what it will cost. An agreement of fees with the advocate should be put in writing. This will help you track your costs and avoid surprises.\nBe completely honest and provide all information related to your case. Make sure the advocate always has your current address and contact information.\nSupply your advocate with all documents related to your case and keep copies for your records.\nAsk the advocate to estimate how long your case will take however; be aware that some unexpected twists and turns in a case can delay the process.\nAsk your advocate to keep you updated on your case either in writing or through a telephone call or by email."
    },
    {
        "original_question": "What should I do if I suspect that my advocate is not really a licensed advocate?",
        "rephrased_questions": [
            "What should I do if I suspect that my advocate is not really a licensed advocate?",
            "What should I do if I suspect that my supporter is not a supporter of my license?",
            "What should I do if you don't think my lawyer is really a licensed lawyer?",
            "What should I do if I suspect my lawyer is not really a licensed lawyer?",
            "What should I do if I suspect that my lawyer is not actually a licensed lawyer?",
            "What should I do if I suspect that my lawyer is not really a licensed lawyer?",
            "What should I do if I suspect that my defender is not really an authorized defender?",
            "What should I do if I suspect my lawyer is not actually a qualified lawyer?",
            "What should I do if I suspect that my advocate is not a licensed lawyer?",
            "What should I do if I suspect my advocate is not a licensed contractor?",
            "What should I do if I suspect that my lawyer is not a licensed lawyer?"
        ],
        "answer": "All advocates must be licensed to practice law in Kenya and have an admission number. Thus it’s important to;\n\nAsk for his or her admission number then contact the Law Society of Kenya using the phone number 0720904983/020-3874664 or by visiting their offices located on Gitanga road for information on the membership of the advocate and any public record of discipline.\nOr visit the Law Society of Kenya website at lsk.co.ke and click on the Advocates Search Engine to check the status of the advocate’s license and discipline information.\nIf the advocate cannot be found in the Law Society of Kenya records and it turns out he or she is not licensed to practice law in Kenya then you should refer the matter to a law enforcement agency e.g. the Police or the Criminal Investigation Department. The Law Society of Kenya and the Advocates’ Complaints Commission’s authority over non-lawyers is limited by law.\nIf your advocate is not licensed to practice law in Kenya, ask him or her to return your file and other documents to enable you hire a licensed advocate."
    },
    {
        "original_question": "What if I have a personal dispute with an advocate?",
        "rephrased_questions": [
            "What if I have a personal dispute with an advocate?",
            "What if I have a personal dispute with a lawyer?",
            "What happens if there is a personal dispute with an advocate?",
            "What if I have a personal dispute with an advocate?",
            "What if I had a dispute with a lawyer?",
            "What if I personally have a dispute with a lawyer?",
            "What happens if I have a personal dispute with a lawyer?",
            "What if I have a personal dispute with an advisor?",
            "What if I have a personal dispute with the defender?"
        ],
        "answer": "If for example, your landlord happens to be an advocate and he or she hasn’t given you enough warning of a rent increase or an advocate has failed to pay his or her bill in a restaurant take note that the Commission does not get involved in such matters. To solve these problems, you need to exercise your rights as a tenant or as someone who is owed a debt."
    },
    {
        "original_question": "What should I do if I have a problem with an advocate with respect to a case he or she is handling on my behalf?",
        "rephrased_questions": [
            "What should I do if I have a problem with an advocate with respect to a case he or she is handling on my behalf?",
            "What should I do if I have a problem with a lawyer regarding a case he or she is handling on my behalf?",
            "What should I do if I have a problem with a spokeswoman that has to do with an issue that is affecting me?",
            "What should I do if I have a lawyer problem with a case I am dealing with?",
            "What should I do if I have a problem with a lawyer in a case that he is handling on my behalf?",
            "What should I do if I have a problem with a protector regarding a case he or she is taking care of for me?",
            "What should I do if I have a problem with a defendant for the case he or she is representing?",
            "What should I do if I have a problem with an advocate about a case he or she is handling?",
            "What should I do if I have a problem with a lawyer in a case that he or she is considering on my behalf?",
            "What should I do if I have a problem with an attorney on any case he or she is working on my behalf?",
            "What should I do if I have a problem with a lawyer regarding a case that he or she deals on my behalf?"
        ],
        "answer": "Contact your advocate at the first sign of a problem;\n\nExpress your concern to the advocate by calling. Keep a record of the date and time of your call.\nIf your advocate does not return your call, send him or her a letter and keep a copy.\nYour next step would depend on the nature of the problem."
    },
    {
        "original_question": "What should I do if I don’t agree with the advocate’s advice?",
        "rephrased_questions": [
            "What should I do if I don’t agree with the advocate’s advice?",
            "What do I do if I do not agree with the advice of the guarantor?",
            "What should I do if I disagree with the lawyer's advice?",
            "What should I do if I do not agree with the lawyer's advice?",
            "What should I do if I disagree with the advocate's advice?",
            "What should I do if I do not accept counseling?",
            "What do I need to do if I do not agree with the driving advice?",
            "What if I don't agree with the lawyer's advice?",
            "What should I do if I disagree with the speaker's advice?"
        ],
        "answer": "Express your concern to the advocate and listen to his or her explanation. If you are not satisfied you can seek a second opinion from another advocate. You do have a right to change an advocate at any time but you should know that he or she will be entitled to fees for the work done."
    },
    {
        "original_question": "What can I do if the advocate’s bill seems high?",
        "rephrased_questions": [
            "What can I do if the advocate’s bill seems high?",
            "What if the lawyer’s bill seems high?",
            "What can I do if advocate bills appear high?",
            "What can I do if the disputed bill seems too high?",
            "What can I do if the attorney's bill looks high?",
            "Is it What can I do if an attorney's bill seems high?",
            "What can I do if your advocacy bill seems high?",
            "What should I do if the advocate's bill is high?",
            "What can I do if the lawyer's bill sounds high?",
            "What can I do if the advocacy law seems high?",
            "What can I do if the lawyer's bill is too high?"
        ],
        "answer": "First, talk to your advocate about it. The case may have been complicated or took more time that you realized or your advocate may have made a mistake.\nIf talking to your advocate does not solve the problem you can request for taxation of the advocate/client bill of costs in a court of law.\nThe fee dispute can also be resolved at the Commission’s In-House Dispute Resolution (IHDR) mechanism which is usually faster and less expensive than going to court pursuant to its mandate under section 53 (6D) of the Advocates Act."
    },
    {
        "original_question": "What do you mean by the advocate/client bill of costs?",
        "rephrased_questions": [
            "What do you mean by the advocate/client bill of costs?",
            "What do you mean by lawyer / client cost bill?",
            "What does the sponsor / customer cost mean?",
            "What do you think about the advocate / client cost?",
            "What do you mean by the lawyer / client's expense account?",
            "What do you mean costs / client account fees?",
            "What do you mean by the defense / client bill?",
            "What are your lawyer / client's costs?",
            "What is the cost of the barrister / client?",
            "What do you mean, advocate / client costs?",
            "What does the lawyer / client claim cost mean?"
        ],
        "answer": "This is a statement of account highlighting each of the services rendered by the advocate, when they were rendered and how much each service costs."
    },
    {
        "original_question": "What happens at the taxation of the advocate/client bill of costs?",
        "rephrased_questions": [
            "What happens at the taxation of the advocate/client bill of costs?",
            "What happens when taxing the ombudsman / client costing account?",
            "What happens to the taxpayer's / client's fees?",
            "What happens during the taxation of the attorney / client costs?",
            "What about the taxation of lawyers / clients?",
            "What happens to my lawyer / client bill?",
            "What happens to the fee charge / invoice for customers?",
            "What Happens to Taxing the Lawyer / Client Accounting Cost?",
            "What happens when taxing a lawyer's / client's bill of costs?",
            "What happens to taxation of attorney / client costs?",
            "What happens when I tax my lawyer / client costs?"
        ],
        "answer": "The court or the Commission assesses the advocate’s bill of costs by examining the advocate’s performance and supporting records then reach a decision regarding the fee dispute."
    },
    {
        "original_question": "What is the role of the Disciplinary System?",
        "rephrased_questions": [
            "What is the role of the Disciplinary System?",
            "What is the role of the Disciplinary System?",
            "What is the role of the disciplinary system?",
            "What is the function of the discipline?",
            "What is the role of the discipline system?"
        ],
        "answer": "They include;\n\nTo protect the client\nTo protect the public\nTo protect the reputation of the legal profession\nTo protect the law\nTo protect the judiciary"
    },
    {
        "original_question": "What is a chattel?",
        "rephrased_questions": [
            "What is a chattel?",
            "What is movable property?",
            "What is a chattel?",
            "What is a bait?",
            "What is a click?",
            "What is chat?",
            "What is a chat?",
            "What is a mobile good?"
        ],
        "answer": "A chattel means any movable property that can be completely transferred by delivery, and includes machinery, stocks and the natural increase of stocks."
    },
    {
        "original_question": "When is the chattel mortgage instrument valid?",
        "rephrased_questions": [
            "When is the chattel mortgage instrument valid?",
            "When is the Mortgage Instrument Validated?",
            "When is the Chattel mortgage product valid?",
            "When a valid instrument of chattel mortgage?",
            "When will the chattel mortgage be valid?",
            "When is a mortgage loan instrument valid?",
            "When is the Chatel Mortgage Tool valid?",
            "When is the Mortgage Mortgage Instrument valid?",
            "When is the Chattel Mortgage Tool enabled?",
            "When is a Collateral Pledge Valid?",
            "When is the chattel mortgage validated?"
        ],
        "answer": "For a Chattel Mortgage to be valid and enforceable in the event of a default by a borrower it must comply with certain minimum but mandatory legal provisions as provided in the Chattels Transfer Act CAP 28 of the Laws of Kenya."
    },
    {
        "original_question": "Where is the Chattel Mortgage instrument registered?",
        "rephrased_questions": [
            "Where is the Chattel Mortgage instrument registered?",
            "Where is the Chattel Mortgage instrument registered?",
            "What is a Chattel Application tool registered?",
            "Where is the Chattel Mortgage Instrument registered?",
            "Where is the Chatlow Mortgage Tool registered?",
            "Where is the Chatel Mortgage Mortgage Tool listed?",
            "Where is the Chattel Mortgage Tool?"
        ],
        "answer": "Registration of chattel mortgages is done at the chattels registry which is only one in the country and it is situated at Nairobi, Office of the Attorney General, Registrar General’s Department-Sheria House."
    },
    {
        "original_question": "What is the fee paid on registration of chattel mortgage instrument?",
        "rephrased_questions": [
            "What is the fee paid on registration of chattel mortgage instrument?",
            "What is the fee paid when registering chattel mortgage instrument?",
            "How much does it cost to register for a Cheattle Garage Device?",
            "Is it What is the fee payable upon registration of a retail register instrument?",
            "What is the fee payable when registering a chat loan instrument?",
            "What is the fee paid for registration of Chatel mortgage instrument?",
            "What are the fees paid when registering a Chatel mortgage?",
            "How do I pay the fee for registering a chattel home loan?",
            "How much does it cost to register a mortgage instrument?",
            "What are the fees paid when registering a particular mortgage instrument?"
        ],
        "answer": "Stamp Duty of Kshs 200/= and registration fee of Kshs 50/="
    },
    {
        "original_question": "What is the guarantee that one is not followed on completing the repayment of the loan?",
        "rephrased_questions": [
            "What is the guarantee that one is not followed on completing the repayment of the loan?",
            "What is the guarantee that you will not consider the final repayment of the loan?",
            "What is the guarantee of non-compliance with the loan repayment?",
            "What is the guarantee that the loan repayment is not being completed?",
            "What is a guarantee that no one is complied with upon repayment of the loan?",
            "What is a guarantee that one does not follow through on completing a loan repayment?",
            "What is the guarantee that it is not followed when the loan is finalized?",
            "What is the guarantee against repayment of the loan?",
            "What is the guarantee that will not be followed when completing the loan repayment?",
            "What is the guarantee that the loan will not be repaid after the loan is repaid?",
            "What is the guarantee that no one follows when completing the loan repayment?"
        ],
        "answer": "By ensuring that the instrument is discharged by filing a memorandum of satisfaction signed by the grantee or her attorney."
    },
    {
        "original_question": "What is the aim of the Chattel Transfer legal framework?",
        "rephrased_questions": [
            "What is the aim of the Chattel Transfer legal framework?",
            "What is the purpose of Chattel Transfer's legal framework?",
            "What is the purpose of the Chattel Transfer legal framework?",
            "What is the purpose of the Chattel Transfer Act?",
            "What is the purpose of the legal framework for Chattel Transfer?",
            "What is the objective of the Chattel Transfer legal framework?",
            "What is the purpose of the legal framework of Chattel Transfer?"
        ],
        "answer": "The Act governs the relationship between property owners and third parties who have contractual relationships with the former in respect of the chattels.\nIt recognizes the role of the state in overall police power over the all property by demanding registration of securities created over chattels to avoid fraudulent transactions\nCollect revenue through stamp duty and registration fees\nProtect third party interests."
    },
    {
        "original_question": "What are the functions of the civil litigation Department and where is it located?",
        "rephrased_questions": [
            "What are the functions of the civil litigation Department and where is it located?",
            "What are the functions of the Department of Public Claims and where are they located?",
            "What is the work of the civil litigation office and where is it located?",
            "What are the functions of the Civil Litigation Department and where is it located?",
            "What are the functions of the Civil Claims Office and where is it?",
            "What are the functions of the Department of civil litigation and where is it?",
            "What is the function of the civil litigation department?",
            "What are the functions of the Department of Civil Procedure and where is it located?",
            "What are the functions of the civil litigation department and where is it located?",
            "What functions does the Civil Judicial Department perform and where is it?"
        ],
        "answer": "Providing legal advice to Government ministries, Department and State Corporation in all legal matters.\nConducting arbitration and other forms of Alternate Dispute Resolution (ADR) such as mediation and adjudication involving the government.\nRepresentation of the Government Ministries ,Department and some state corporation in courts in all civil and constitutional matters instituted in the surbordinate courts, the High court and appeals in the court of appeal, in the supreme court, East Africa court of justice-Arusha and the African Human and people’s Rights commission-Banjul.\n\nThe department is housed on the 7th floor of Sheria House."
    },
    {
        "original_question": "How do I go about suing the Government and I do not know where to begin.",
        "rephrased_questions": [
            "How do I go about suing the Government and I do not know where to begin.",
            "How do I proceed to sue the government, and I do not know where to start.",
            "How I can set up the Government I don't know how to get started.",
            "How do I start to sue the Government and I do not know where to start.",
            "How do I file a Government complaint and I have no idea where to start.",
            "I don't know how to sue the government and where to start.",
            "How do I sue the government and I don't know where to start.",
            "How to judge the government and I don't know where to start.",
            "I know how to sue the government and I don't know where to look.",
            "How do I charge the government and I don't know where to start.",
            "How do I sue the government, I don't know where to start."
        ],
        "answer": "It is mandatory that any party who wishes to sue the Government must issue a 30 day’s notice. This is provided for under section 13Aof cap 40."
    },
    {
        "original_question": "What does the Notice to sue contain?",
        "rephrased_questions": [
            "What does the Notice to sue contain?",
            "What does the lawsuit notice contain?",
            "What is the content of the Notice being sued?",
            "What is a Claim Alert?",
            "What does the claim notice contain?",
            "What does the prosecution charge contain?",
            "What content does the notice of indictment contain?",
            "What does the notice of prosecution contain?",
            "What about the cause notice?",
            "What does the notice to sue sue contain?",
            "What does the court include in the claim?"
        ],
        "answer": "The full names, description and place of residence of the proposed plaintiff;\nThe date upon which the cause of action is alleged to have accrued;\nThe name of the Government department alleged to be responsible and the full names of any servant or agent whom it is intended to join as a Defendant;\nA concise statement of the facts on which it is alleged that the liability of the Government and of any such servant or agent has arisen;\nThe relief that will be claimed and, so far as may be practicable, the value of the subject matter of the intended proceeding or the amount which it is intended to claim"
    },
    {
        "original_question": "How long does it take for the notice to sue to be replied?",
        "rephrased_questions": [
            "How long does it take for the notice to sue to be replied?",
            "How long does it take to respond to the notice of appeal?",
            "How long does it take for a reply to reply to a message?",
            "How long does it take to respond to a lawsuit?",
            "How long does it take for a notification to respond?",
            "How long does it take for the notice to be filed to respond?",
            "How long did it take to respond to the command to command?",
            "How long does it take to search for the message to be answered?",
            "How long does it take for a notification to sue?",
            "How much notice should the notice be made?",
            "How long will it take to respond to the notification?"
        ],
        "answer": "For any suit filed against the Government there must be a 30 days of notice before a suit is filed. (Notice to sue)\nUpon the receipt of the notice, the civil litigation department requires the respective departments/ministries to respond to the notice within 7 days\nThis means that in total the civil litigation department expects that proper instruction are received from the department/ministry within 21 days before a suit is filed\nIn short, the civil process against the government commences with the issuance of notice of intention to institute proceeding in accordance with section 13 A of the Government proceedings Act. No proceeding can be instituted in court against the Government until after the expiry of thirty (30) days after a notice in writing has been served on the Government in relation to those proceedings.\nOnce summons to enter appearance and defence have been received from the plaintiff, the defendant has only 15 days to enter appearance and another 15 days from the day of appearance to file a defense."
    },
    {
        "original_question": "What happens if the above time is reached or surpassed?",
        "rephrased_questions": [
            "What happens if the above time is reached or surpassed?",
            "What happens if it's time or superior?",
            "What if reached or exceeded the aforementioned time?",
            "What will happen if the above-mentioned path is reached or overcome?",
            "What happens if the time limit reaches or expires?",
            "What happens if the above time is reached or exceeded?",
            "What happens if the above time is reached or increased?",
            "What happens if the upper time is reached or exceeded?",
            "What happens if the above time is reached or surpassed?",
            "What happens if the time above is reached or exceeded?"
        ],
        "answer": "The court will be requested to enter interlocutory judgment against the Department concerned because it will be assumed that government ministry concerned has admitted the claim and have no defense to offer."
    },
    {
        "original_question": "Sometimes when I come to serve the attorney General with documents I am turned away to go bring back their reference number, is this number that important?",
        "rephrased_questions": [
            "Sometimes when I come to serve the attorney General with documents I am turned away to go bring back their reference number, is this number that important?",
            "Sometimes when I come to serve the Attorney General with documents I return to retrieve their reference number, is this number important?",
            "Sometimes when I come to serve the attorney general with documents, I am sent away to bring back their reference number, is this number so important?",
            "Sometimes, if I am going to serve the Attorney General with documents, I am directed to return their reference number, is this number so important?",
            "Sometimes when I come to deliver documents to the attorney general, I get tempted to go back their reference, does this number matter?",
            "Sometimes when I come to serve the Attorney General with the documents I have averted and returned their reference number, is that number so important?",
            "Sometimes when I will serve the Attorney General with documents I am rejected for returning their reference number, is this number so important?",
            "Sometimes when I come to serve the Attorney General with documents, I am turned away to go back with their reference number, is this number so important?",
            "Sometimes when I come to attend the attorney's documents to go back to them to return their reference number, is that number important?",
            "Sometimes when I come to serve the Attorney General with documents, I refuse to return their reference number, is that number important?",
            "Sometimes when I come to serve the Attorney General with documents that I have turned to get their reference number, is that number so important?"
        ],
        "answer": "Yes, quoting the reference number (correctly) ensure that the letters/documents are not misfiled, and /or misdirected."
    },
    {
        "original_question": "I would like to seek a legal opinion from the government, how do I go about it?",
        "rephrased_questions": [
            "I would like to seek a legal opinion from the government, how do I go about it?",
            "I would like to seek legal advice from the government, how can I do this?",
            "I would like to seek the views of the government, how can I do so?",
            "I'd like to seek legal opinions from the government, would I? How do I proceed?",
            "I would like to seek a legal opinion from the government, how do I do it?",
            "I want to get legitimate opinion from the government, how do I go about it?",
            "I would like to seek legal advice from the government, how can we deal with it?",
            "I want to seek a legal opinion from the government, how can I talk about it?",
            "I would like to seek a legal opinion from the government, how do I do this?",
            "I would like to obtain a legal opinion from the government. How do I proceed?",
            "I want to seek legal advice from the government. What should I do?"
        ],
        "answer": "Members of the public can write to the Hon. Attorney-General for a legal opinion who in turn instruct a counsel to research and give him the results of the opinion for his consideration."
    },
    {
        "original_question": "How is service of documents against the government effected?",
        "rephrased_questions": [
            "How is service of documents against the government effected?",
            "How does the service of documents to the government take place?",
            "How is the service of documents against the government made?",
            "How has the document service been done against the government?",
            "How are the documents served on the government?",
            "How does documentation services affect the government?",
            "How are documents served against the government?",
            "How does the service of documents against the government be affected?",
            "How to file anti-government documents?",
            "How does the service of the documents against the government apply?",
            "How are anti-government documents executed?"
        ],
        "answer": "By leaving the document within the prescribed hours at the relevant registry within the office of the Attorney General\nBy leaving the document within the office of his agent whom he has nominated for that purpose (in either of the above cases make sure the document is with a person belonging to the office where the document is left.)\nBy posting it in a prepaid registered envelope addressed to the Attorney General or any such agent as a foresaid. (This only relates to documents where personal service is not required)."
    },
    {
        "original_question": "Apart from Nairobi, does the civil Litigation Department have offices in other counties?",
        "rephrased_questions": [
            "Apart from Nairobi, does the civil Litigation Department have offices in other counties?",
            "Aside from Nairobi, are you? Does the Department of Public Liturgy have offices in other counties?",
            "Does the civil department have offices in other countries besides Nairobi?",
            "In addition to Nairobi, does the Civil Litigation Department have offices in other counties?",
            "Does the civil litigation department have offices in other countries except Nairobi?",
            "In addition to Nairobi, does the civil litigation department have offices in other states?",
            "Apart from Nairobi, does the Department of Civil Litigation have offices in other counties?",
            "Apart from Nairobi, does the civil justice department have offices in other counties?",
            "Does civil litigation have other districts besides Nairobi?",
            "In addition to Nairobi, the Civil Court Court has offices in other states?",
            "Recently in Nairobi, the civil litigation department has offices in other countries?"
        ],
        "answer": "Yes, they have offices in Mombasa, Kisumu, Kakamega, Eldoret, Nakuru, Nyeri and Meru."
    }
]